\relax 
\providecommand\hyper@newdestlabel[2]{}
\providecommand\HyperFirstAtBeginDocument{\AtBeginDocument}
\HyperFirstAtBeginDocument{\ifx\hyper@anchor\@undefined
\global\let\oldcontentsline\contentsline
\gdef\contentsline#1#2#3#4{\oldcontentsline{#1}{#2}{#3}}
\global\let\oldnewlabel\newlabel
\gdef\newlabel#1#2{\newlabelxx{#1}#2}
\gdef\newlabelxx#1#2#3#4#5#6{\oldnewlabel{#1}{{#2}{#3}}}
\AtEndDocument{\ifx\hyper@anchor\@undefined
\let\contentsline\oldcontentsline
\let\newlabel\oldnewlabel
\fi}
\fi}
\global\let\hyper@last\relax 
\gdef\HyperFirstAtBeginDocument#1{#1}
\providecommand\HyField@AuxAddToFields[1]{}
\providecommand\HyField@AuxAddToCoFields[2]{}
\catcode `"\active 
\@writefile{toc}{\beamer@endinputifotherversion {3.36pt}}
\@writefile{nav}{\beamer@endinputifotherversion {3.36pt}}
\select@language{ngerman}
\@writefile{toc}{\select@language{ngerman}}
\@writefile{lof}{\select@language{ngerman}}
\@writefile{lot}{\select@language{ngerman}}
\@writefile{nav}{\headcommand {\slideentry {0}{0}{1}{1/2}{}{0}}}
\@writefile{nav}{\headcommand {\beamer@framepages {1}{2}}}
\@writefile{nav}{\headcommand {\slideentry {0}{0}{2}{3/3}{}{0}}}
\@writefile{nav}{\headcommand {\beamer@framepages {3}{3}}}
\@writefile{nav}{\headcommand {\slideentry {0}{0}{3}{4/6}{}{0}}}
\@writefile{nav}{\headcommand {\beamer@framepages {4}{6}}}
\@writefile{nav}{\headcommand {\slideentry {0}{0}{4}{7/7}{}{0}}}
\@writefile{nav}{\headcommand {\beamer@framepages {7}{7}}}
\@writefile{nav}{\headcommand {\slideentry {0}{0}{5}{8/8}{}{0}}}
\@writefile{nav}{\headcommand {\beamer@framepages {8}{8}}}
\@writefile{nav}{\headcommand {\slideentry {0}{0}{6}{9/10}{}{0}}}
\@writefile{nav}{\headcommand {\beamer@framepages {9}{10}}}
\@writefile{nav}{\headcommand {\slideentry {0}{0}{7}{11/14}{}{0}}}
\@writefile{nav}{\headcommand {\beamer@framepages {11}{14}}}
\@writefile{nav}{\headcommand {\slideentry {0}{0}{8}{15/15}{}{0}}}
\@writefile{nav}{\headcommand {\beamer@framepages {15}{15}}}
\@writefile{nav}{\headcommand {\slideentry {0}{0}{9}{16/17}{}{0}}}
\@writefile{nav}{\headcommand {\beamer@framepages {16}{17}}}
\@writefile{nav}{\headcommand {\slideentry {0}{0}{10}{18/19}{}{0}}}
\@writefile{nav}{\headcommand {\beamer@framepages {18}{19}}}
\@writefile{nav}{\headcommand {\slideentry {0}{0}{11}{20/20}{}{0}}}
\@writefile{nav}{\headcommand {\beamer@framepages {20}{20}}}
\@writefile{nav}{\headcommand {\beamer@partpages {1}{20}}}
\@writefile{nav}{\headcommand {\beamer@subsectionpages {1}{20}}}
\@writefile{nav}{\headcommand {\beamer@sectionpages {1}{20}}}
\@writefile{nav}{\headcommand {\beamer@documentpages {20}}}
\@writefile{nav}{\headcommand {\def \inserttotalframenumber {10}}}
